{
  "Новый": "new",
  "Принят": "received",
  "Ожидает оплаты": "paywaiting",
  "Оплачен": "payed",
  "Недозвон": "cantcall",
  "Передан на сборку": "loaded",
  "Собирается": "picking_planned",
  "Собран": "stocked",
  "Требует уточнения": "notavailable",
  "Упакован": "packed",
  "Передан в службу доставки": "shipped",
  "Принят, ожидается оплата": "new_wait_payment"
}
