[
  {
    "id": 12,
    "label": "Обувь",
    "amount": 5069,
    "subCategories": [
      {
        "id": 13,
        "label": "Ботинки",
        "amount": 569
      },
      {
        "id": 14,
        "label": "Ботфорты",
        "amount": 153
      },
      {
        "id": 15,
        "label": "Дутики",
        "amount": 569
      },
      {
        "id": 16,
        "label": "Кеды",
        "amount": 153
      },
      {
        "id": 17,
        "label": "Кроссовки",
        "amount": 41
      },
      {
        "id": 18,
        "label": "Полуботинки",
        "amount": 81
      }
    ]
  },
  {
    "id": 19,
    "label": "Аксессуары",
    "amount": 1069,
    "subCategories": [
      {
        "id": 20,
        "label": "Аксессуар1",
        "amount": 569
      },
      {
        "id": 21,
        "label": "Аксессуар2",
        "amount": 153
      },
      {
        "id": 22,
        "label": "Аксессуар3",
        "amount": 569
      }
    ]
  },
  {
    "id": 32,
    "label": "Распродажа",
    "amount": 5069,
    "subCategories": [
      {
        "id": 33,
        "label": "Ботинки",
        "amount": 569
      },
      {
        "id": 34,
        "label": "Ботфорты",
        "amount": 153
      },
      {
        "id": 35,
        "label": "Дутики",
        "amount": 569
      }
    ]
  }
]
