{
  "aboutProduct": {
    "attributes": [
      {
        "label": "Артикул",
        "value": "DAYANA1-3-6"
      },
      {
        "label": "Штрихкод",
        "value": "4600100065419"
      },
      {
        "label": "Цвет",
        "value": "серый"
      },
      {
        "label": "Материал верха",
        "value": "велюр"
      },
      {
        "label": "Материал подкладки",
        "value": "нат.мех"
      },
      {
        "label": "Материал подошвы",
        "value": "полимерный материал"
      },
      {
        "label": "Торговая марка",
        "value": "TERVOLINA"
      },
      {
        "label": "Сезон",
        "value": "Зима"
      },
      {
        "label": "Линия",
        "value": "Sport"
      }
    ],
    "text": "Женственные кеды – думаете, такое невозможно? только не с моделью от Tervolina! Узнаваемый спортивный силуэт с круглым мыском и шнуровкой тут дополнен цветочной аппликацией из текстиля. Нотку свежести в основной черный тон вносят серебристые задники обуви. Кожано-тканевый каркас установлен на широкую полимерную подошву, обещающую подарить походке легкость и непринужденность. Внутри – кожа."
  },
  "comments": {
    "averageRating": 4,
    "total": 20,
    "totalPages": 5,
    "list": [
      {
        "name": "Евгений",
        "date": "19 марта 2019",
        "yandexMarket": false,
        "grade": {
          "title": "Хорошая модель",
          "value": 3
        },
        "text": "Оставляла отзыв на данный товар сразу после покупки, теперь хочу дополнить. Сапоги действительно очень красивые и удобные, но спустя максимум 10 \"выходов\" полностью разошёлся шов вдоль пятки, с наружной стороны.",
        "images": [
          {
            "src": "/img/detail-gallery-1-thumb.jpg",
            "srcFull": "/img/detail-gallery-1.jpg"
          },
          {
            "src": "/img/detail-gallery-1-thumb.jpg",
            "srcFull": "/img/detail-gallery-1.jpg"
          },
          {
            "src": "/img/detail-gallery-1-thumb.jpg",
            "srcFull": "/img/detail-gallery-1.jpg"
          }
        ]
      },
      {
        "name": "Екатерина",
        "date": "18 марта 2019",
        "yandexMarket": true,
        "grade": {
          "title": "Удобная колодка",
          "value": 4
        },
        "text": "Оставляла отзыв на данный товар сразу после покупки, теперь хочу дополнить. Сапоги действительно очень красивые и удобные, но спустя максимум 10 \"выходов\" полностью разошёлся шов вдоль пятки, с наружной стороны."
      }
    ]
  },
  "questions": {
    "total": 13,
    "totalPages": 5,
    "list": [
      {
        "name": "Аня",
        "date": "15 июня 2018",
        "text": "Добрый день! Какой материал у сапог?",
        "yandexMarket": false,
        "answer": {
          "name": "Tervolina",
          "date": "15 июня 2018",
          "text": "Анна, материал: трикотаж"
        }
      },
      {
        "name": "Екатерина",
        "date": "14 июня 2018",
        "text": "Будут еще в налачии?? хотел приобрести",
        "yandexMarket": true,
        "answer": {
          "name": "Tervolina",
          "date": "15 июня 2018",
          "text": "Екатерина, нам жаль, точных сроков поуступления товаров нет."
        }
      },
      {
        "name": "Алпамыс",
        "date": "12 июня 2018",
        "text": "Добрый день! Какой материал у сапог?",
        "yandexMarket": false
      }
    ]
  }
}
