[{
  "id": 1,
  "name": "пр-т Вернадского, д.86А",
  "metro": {
    "name": "Юго-западная",
    "color": "#ff4200"
  },
  "address": "г. Москва, пр-т Вернадского, д.86А, эт. 2, павильон № 2-16",
  "workTime": "Пн-Вс: 10.00 - 22.00",
  "phone": "+7 (969) 014 - 77 - 19"
}, {
  "id": 2,
  "name": "пр-т Вернадского, д.87А",
  "metro": {
    "name": "Юго-западная",
    "color": "#ffc600"
  },
  "address": "г. Москва, пр-т Вернадского, д.87А, эт. 2, павильон № 2-16",
  "workTime": "Пн-Вс: 10.00 - 22.00",
  "phone": "+7 (969) 014 - 77 - 19"
}, {
  "id": 3,
  "name": "пр-т Вернадского, д.88А",
  "metro": {
    "name": "Юго-западная",
    "color": "#ff4200"
  },
  "address": "г. Москва, пр-т Вернадского, д.88А, эт. 2, павильон № 2-16",
  "workTime": "Пн-Вс: 10.00 - 22.00",
  "phone": "+7 (969) 014 - 77 - 19"
}, {
  "id": 4,
  "name": "пр-т Вернадского, д.89А",
  "metro": {
    "name": "Юго-западная",
    "color": "#ffc600"
  },
  "address": "г. Москва, пр-т Вернадского, д.89А, эт. 2, павильон № 2-16",
  "workTime": "Пн-Вс: 10.00 - 22.00",
  "phone": "+7 (969) 014 - 77 - 19"
}, {
  "id": 5,
  "name": "пр-т Вернадского, д.90А",
  "metro": {
    "name": "Юго-западная",
    "color": "#ff4200"
  },
  "address": "г. Москва, пр-т Вернадского, д.90А, эт. 2, павильон № 2-16",
  "workTime": "Пн-Вс: 10.00 - 22.00",
  "phone": "+7 (969) 014 - 77 - 19"
}, {
  "id": 6,
  "name": "пр-т Вернадского, д.91А",
  "metro": {
    "name": "Юго-западная",
    "color": "#ffc600"
  },
  "address": "г. Москва, пр-т Вернадского, д.91А, эт. 2, павильон № 2-16",
  "workTime": "Пн-Вс: 10.00 - 22.00",
  "phone": "+7 (969) 014 - 77 - 19"
}]
