<?xml version="1.0" encoding="utf-8"?>
<!-- Generator: Adobe Illustrator 19.2.1, SVG Export Plug-In . SVG Version: 6.00 Build 0)  -->
<svg version="1.1" id="Слой_1" xmlns="http://www.w3.org/2000/svg" xmlns:xlink="http://www.w3.org/1999/xlink" x="0px" y="0px"
	 viewBox="0 0 15.1 10.4" style="enable-background:new 0 0 15.1 10.4;" xml:space="preserve">
<path d="M14.9,5.1c0-0.3-0.1-0.5-0.3-0.7v0c-0.1-0.1-0.2-0.1-0.2-0.2l-3.9-3.8c-0.4-0.4-1-0.4-1.3,0c-0.4,0.4-0.4,1,0,1.3
	c0,0,0,0,0,0l2.4,2.4H1c-0.5,0-1,0.4-1,1s0.4,1,1,1h10.5L9.2,8.5c0,0,0,0,0,0c-0.4,0.4-0.4,1,0,1.3c0,0,0,0,0,0c0.4,0.4,1,0.4,1.3,0
	L14.4,6c0.1,0,0.2-0.1,0.2-0.2C14.9,5.6,15,5.4,14.9,5.1z"/>
</svg>
