<svg xmlns="http://www.w3.org/2000/svg" width="44" height="28.969" viewBox="0 0 44 28.969">
  <defs>
    <style>
      .cls-1 {
        fill: #333;
        fill-rule: evenodd;
      }
    </style>
  </defs>
  <path id="Фигура_17" data-name="Фигура 17" class="cls-1" d="M188.268,521.536c-1.284-1.357-8.714-4.794-11.924-6.241a43.022,43.022,0,0,1-8.438-7.327,7,7,0,0,0-2.385-1.989,2.609,2.609,0,0,1-.642-0.724,2.721,2.721,0,0,0-3.944-.724l-3.944,2.8a2.824,2.824,0,0,0-1.1,2.442c-0.092-.09-0.918-0.633-1.009-0.723-3.853-1.9-5.687,1.085-5.687,3.618-0.367,3.527-1.1,7.416-1.192,8.231-2.018,3.708-.734,6.6,1.742,7.507,16.877,6.06,31.185,4.974,36.413,3.075,2.844-1,4.4-2.442,4.77-4.251C191.478,524.43,188.726,521.9,188.268,521.536Zm-0.917,1.628a50.211,50.211,0,0,1-12.2,1.628c0.55-1.538,2.293-4.161,8.346-3.98C185.608,521.9,186.434,522.259,187.351,523.164ZM160.11,513.3l6.328-1.628-3.3,4.432C162.036,515.114,160.935,514.119,160.11,513.3Zm4.861,4.522,5.32-2.171-2.752,4.432C166.714,519.274,165.8,518.551,164.971,517.827Zm15.409,1.357c-4.678.724-6.329,3.437-6.879,5.156a44.63,44.63,0,0,1-3.944-2.714L178,518.1C178.821,518.46,179.554,518.822,180.38,519.184Zm-4.586-2.171-5.687,2.352,2.752-4.432A15.726,15.726,0,0,0,175.794,517.013Zm-4.953-3.618-4.861,1.99,2.843-3.8C169.373,512.129,170.107,512.762,170.841,513.4ZM158,508.782l3.944-2.8a0.81,0.81,0,0,1,1.284.271c1.193,1.809,1.193.543,3.761,3.527l-8.439,2.171-0.733-.723C157.633,510.139,157.633,509.054,158,508.782Zm-6.971,3.89c0-.905.367-2.533,1.56-2.533,3.026,0,8.53,7.869,18.069,14.382a89.662,89.662,0,0,1-20.729-4.161C150.112,519,150.663,515.747,151.029,512.672Zm38.156,14.2c-0.275,1.447-2.109,2.352-3.577,2.894-1.559.543-15.409,4.071-35.221-3.075a2.181,2.181,0,0,1-1.467-1.809,51.65,51.65,0,0,0,6.7,2.171,0.945,0.945,0,0,0,1.1-.633,0.928,0.928,0,0,0-.642-1.085,42.96,42.96,0,0,1-6.971-2.352c0.092-.272.184-0.452,0.275-0.724,12.016,3.98,27.15,6.241,39.257,2.533A3.393,3.393,0,0,1,189.185,526.872Z" transform="translate(-147 -504)"/>
</svg>
