<svg xmlns="http://www.w3.org/2000/svg" width="53.5" height="58.78" viewBox="0 0 53.5 58.78">
  <defs>
    <style>
      .cls-1 {
        fill: #e4002b;
        fill-rule: evenodd;
      }
    </style>
  </defs>
  <path id="Фигура_14" data-name="Фигура 14" class="cls-1" d="M849.185,1473.52v3.96a1.506,1.506,0,0,0,3.011,0v-3.96A1.506,1.506,0,0,0,849.185,1473.52Zm0-10.19v3.96a1.506,1.506,0,0,0,3.011,0v-3.96A1.506,1.506,0,0,0,849.185,1463.33Zm0,20.38v3.96a1.506,1.506,0,0,0,3.011,0v-3.96A1.506,1.506,0,0,0,849.185,1483.71Zm-22.791-24.59v11.69a32.32,32.32,0,0,0-6.148,2.01,53.752,53.752,0,0,0-4.974,2.5,12.367,12.367,0,0,0-6.13,8.69l-4.149,23.81a1.506,1.506,0,0,0,2.969.51l4.149-23.84a9.373,9.373,0,0,1,4.654-6.56,48.209,48.209,0,0,1,4.679-2.32,30.727,30.727,0,0,1,4.95-1.68v10a10.451,10.451,0,0,0-1.09-.36,1.505,1.505,0,1,0-.807,2.9,6.046,6.046,0,0,1,2.174,1.05,12.7,12.7,0,0,1-3.523,3.6,1.51,1.51,0,1,0,1.722,2.48,15.671,15.671,0,0,0,4.444-4.62l4.9-7.7a2.655,2.655,0,0,1,4.5,2.82h0l-3.661,5.91a13.936,13.936,0,0,0-2.126,7.84,11.01,11.01,0,0,1-4.817,9.45l-0.4.27a14.071,14.071,0,0,0-3.974,4.12,1.512,1.512,0,0,0,2.565,1.6,11.006,11.006,0,0,1,3.125-3.24l0.4-.27a14.005,14.005,0,0,0,5.04-6.22l0.367,0.37a4.771,4.771,0,0,0,6.727.04,9.752,9.752,0,0,1,6.714-5.45,4.575,4.575,0,0,0-.145-2.52l-0.073-.21h6.1a3.913,3.913,0,0,0,3.92-3.9h0v-32.77a3.913,3.913,0,0,0-3.92-3.9H830.308A3.909,3.909,0,0,0,826.394,1459.12Zm3.01,24.17v-24.17a0.906,0.906,0,0,1,.9-0.9h4.215v19.19a5.652,5.652,0,0,0-2.8,2.27Zm7.973,18.54-1.59-1.63a14.232,14.232,0,0,0,.145-2.45,11.012,11.012,0,0,1,.126-1.98h1.686l0.042,0.09,2.349,3.8a1.749,1.749,0,0,1-.514,2.42,1.77,1.77,0,0,1-2.226-.27Zm8.321-4.84a1.6,1.6,0,0,1-2.866,1.38l-0.036-.05c-0.042-.07-0.072-0.15-0.114-0.22l-1.427-2.32h4.016Zm9.767-37.87v32.76a0.9,0.9,0,0,1-.909.9H836.967a11.572,11.572,0,0,1,.645-1.2l3.685-5.89a5.6,5.6,0,0,0,.861-3,5.727,5.727,0,0,0-.163-1.34,5.655,5.655,0,0,0-4.456-4.22v-18.91h17.017a0.9,0.9,0,0,1,.909.9h0Z" transform="translate(-804.969 -1455.22)"/>
</svg>
