<svg xmlns="http://www.w3.org/2000/svg" width="58.94" height="56.41" viewBox="0 0 58.94 56.41">
  <defs>
    <style>
      .cls-1 {
        fill: #e4002b;
        fill-rule: evenodd;
      }
    </style>
  </defs>
  <path id="Фигура_15" data-name="Фигура 15" class="cls-1" d="M1126.61,1469.15h0v-0.32h0v-0.88a0.086,0.086,0,0,0-.08-0.09,0.078,0.078,0,0,0-.08-0.08v-0.08a0.078,0.078,0,0,0-.08-0.08v-0.08l-0.08-.08h-0.08a0.086,0.086,0,0,1-.09-0.08h-12.59a1.525,1.525,0,1,0,0,3.05h9.53l-6.62,18.18H1086.8l-5.08-18.18h10.25a1.525,1.525,0,1,0,0-3.05h-11.06l-1.37-4.8h0v-0.48l-0.08-.08a0.078,0.078,0,0,0-.08-0.08,0.082,0.082,0,0,0-.09-0.08l-0.08-.08-0.08-.08-0.08-.08-0.08-.08-0.08-.08h-0.08a0.078,0.078,0,0,1-.08-0.08h0l-8.88-4.73a1.479,1.479,0,0,0-2.02.64,1.524,1.524,0,0,0,.65,2l8.31,4.41,1.37,4.97a1.506,1.506,0,0,0,.17.64l8.23,29.71a5.72,5.72,0,1,0,5.57,3.05h17.44a5.846,5.846,0,0,0-.64,2.64,5.73,5.73,0,1,0,5.73-5.69h-24.87l-2.1-7.61h30.12a0.845,0.845,0,0,0,.4-0.16h0c0.08,0,.08-0.08.16-0.08h0c0.08,0,.08-0.08.17-0.08h0l0.16-.16h0c0-.08.08-0.08,0.08-0.16h0a0.279,0.279,0,0,1,.08-0.16h0l7.75-21.22h0c-0.08-.08-0.08-0.08,0-0.24h0Zm-39.64,38.45a2.645,2.645,0,1,1,2.66-2.65A2.685,2.685,0,0,1,1086.97,1507.6Zm30.19-2.65a2.665,2.665,0,1,1-2.66-2.64A2.53,2.53,0,0,1,1117.16,1504.95Zm-22.85-29.24a1.6,1.6,0,0,1,0-2.16,1.545,1.545,0,0,1,2.18,0l4.61,4.57v-22.59a1.521,1.521,0,0,1,1.53-1.52,1.473,1.473,0,0,1,1.53,1.52v22.59l4.61-4.57a1.623,1.623,0,0,1,2.18,0,1.6,1.6,0,0,1,0,2.16l-7.03,6.97-0.08.08-0.08.08a1.571,1.571,0,0,1-1.05.48,1.31,1.31,0,0,1-1.05-.48Z" transform="translate(-1067.69 -1454)"/>
</svg>
