<?xml version="1.0" encoding="UTF-8"?>
<svg width="543px" height="66px" viewBox="0 0 543 66" version="1.1" xmlns="http://www.w3.org/2000/svg" xmlns:xlink="http://www.w3.org/1999/xlink">
    <!-- Generator: Sketch 52.6 (67491) - http://www.bohemiancoding.com/sketch -->
    <title>Icons/logo</title>
    <desc>Created with Sketch.</desc>
    <defs>
        <polygon id="path-1" points="0.278612718 0.776 62.3687438 0.776 62.3687438 65 0.278612718 65"></polygon>
        <polygon id="path-3" points="0 65 542.75 65 542.75 0.776 0 0.776"></polygon>
    </defs>
    <g id="Icons/logo" stroke="none" stroke-width="1" fill-rule="evenodd">
        <g id="Group-15">
            <polygon id="Fill-1" points="0 2.4804 0 17.8164 18.014 17.8164 18.014 63.9064 36.958 63.9064 36.958 17.8164 54.958 17.8164 54.958 2.4804"></polygon>
            <polygon id="Fill-2" points="65.1314 2.4808 115.6324 2.4808 115.6324 17.3338 83.2054 17.3338 83.2054 26.2568 112.6554 26.2568 112.6554 39.9678 83.2054 39.9678 83.2054 48.8918 116.5924 48.8918 116.5924 63.7398 65.1314 63.7398"></polygon>
            <polygon id="Fill-3" points="185.2847 2.4808 204.5987 2.4808 215.5587 44.4988 227.3057 2.4808 245.8237 2.4808 225.1427 63.9068 205.9557 63.9068"></polygon>
            <g id="Group-14" transform="translate(0.000000, 0.223900)">
                <g id="Group-6" transform="translate(251.000000, 0.000000)">
                    <mask id="mask-2" fill="white">
                        <use xlink:href="#path-1"></use>
                    </mask>
                    <g id="Clip-5"></g>
                    <path d="M31.3287,50.587 C31.3287,50.587 18.4197,51.75 18.3547,32.973 C18.2897,14.196 31.3287,15.187 31.3287,15.187 C31.3287,15.187 44.3677,14.196 44.3027,32.973 C44.2377,51.75 31.3287,50.587 31.3287,50.587 M31.3237,0.778 C31.3237,0.778 0.5397,-0.133 0.2787,33.988 C0.2787,33.988 -0.0023,63.909 31.3237,65 C62.6487,63.909 62.3687,33.988 62.3687,33.988 C62.1077,-0.133 31.3237,0.778 31.3237,0.778" id="Fill-4" mask="url(#mask-2)"></path>
                </g>
                <polygon id="Fill-7" points="324.9966 2.2569 343.0746 2.2569 343.0746 48.6679 370.6876 48.6679 370.6876 63.5159 324.9966 63.5159"></polygon>
                <mask id="mask-4" fill="white">
                    <use xlink:href="#path-3"></use>
                </mask>
                <g id="Clip-10"></g>
                <polygon id="Fill-9" mask="url(#mask-4)" points="382.53 63.516 400.623 63.516 400.623 2.257 382.53 2.257"></polygon>
                <polygon id="Fill-11" mask="url(#mask-4)" points="413.2203 2.2569 431.9733 2.2569 451.2323 37.4819 451.2403 2.2569 468.2653 2.2569 468.2653 63.5159 450.4723 63.5159 430.3533 27.7019 430.2483 63.5159 413.2203 63.5159"></polygon>
                <path d="M504.5933,42.378 L511.6083,20.087 L517.9243,42.378 L504.5933,42.378 Z M520.4453,2.257 L502.4573,2.257 L479.8953,63.516 L497.9593,63.516 L500.7563,54.601 L521.4543,54.601 L524.0703,63.516 L542.7503,63.516 L520.4453,2.257 Z" id="Fill-12" mask="url(#mask-4)"></path>
                <path d="M147.5264,32.042 L147.5264,13.417 C147.5264,13.417 159.3594,11.53 160.0434,22.657 C160.0434,22.657 160.2004,32.987 147.5264,32.042 Z M167.6364,39.138 C178.3594,32.147 177.0614,20.912 177.0614,20.912 C175.2914,3.075 157.8524,2.163 157.8524,2.163 L128.5974,2.163 L128.5974,63.516 L147.5394,63.516 L147.5394,39.253 L160.0704,63.516 L180.1304,63.516 L167.6364,39.138 Z" id="Fill-13" mask="url(#mask-4)"></path>
            </g>
        </g>
    </g>
</svg>
