<svg xmlns="http://www.w3.org/2000/svg" width="16" height="15" viewBox="0 0 16 15">
  <defs>
    <style>
      .cls-1 {
        fill: #ddd;
        fill-rule: evenodd;
      }
    </style>
  </defs>
  <path id="Фигура_549" data-name="Фигура 549" class="cls-1" d="M877,295l2.636,4.714L885,300.73l-3.733,3.928L881.944,310,877,307.714,872.056,310l0.678-5.342L869,300.73l5.362-1.016L877,295" transform="translate(-869 -295)"/>
</svg>
