<svg xmlns="http://www.w3.org/2000/svg" width="18.97" height="22" viewBox="0 0 18.97 22">
  <defs>
    <style>
      .cls-1 {
        fill-rule: evenodd;
      }
    </style>
  </defs>
  <path class="cls-1" d="M1071.4,127.809a0.712,0.712,0,0,0,.08,0h0.02l0.05,0a4.285,4.285,0,0,0,3.24-1.379c1.77-1.974,1.48-5.364,1.44-5.679a4.659,4.659,0,0,0-2.12-4.058,5.03,5.03,0,0,0-2.53-.695l-0.1,0-0.11,0a5.03,5.03,0,0,0-2.53.695,4.659,4.659,0,0,0-2.12,4.058c-0.03.315-.33,3.7,1.44,5.679A4.285,4.285,0,0,0,1071.4,127.809Zm-3.53-6.953V120.82c0.16-3.414,2.72-3.679,3.5-3.679,0.04,0,.07,0,0.08,0h0.05l0.08,0c0.78,0,3.34.265,3.5,3.679v0.035c0,0.032.32,3.173-1.16,4.818a3.128,3.128,0,0,1-2.42.993,0.077,0.077,0,0,0-.02,0h-0.01a0.077,0.077,0,0,0-.02,0,3.132,3.132,0,0,1-2.42-.993C1067.55,124.028,1067.87,120.887,1067.87,120.856ZM1081,133.5a7.169,7.169,0,0,1-.24,2.053,0.551,0.551,0,0,1-.22.269,17.738,17.738,0,0,1-9.03,2.18h0a0.016,0.016,0,0,1-.01,0,17.677,17.677,0,0,1-9.02-2.18,0.634,0.634,0,0,1-.23-0.269,7.074,7.074,0,0,1-.23-2.029c-0.14-2.059.63-3.452,2.12-3.825a13.377,13.377,0,0,0,3.86-1.735,0.589,0.589,0,0,1,.81.138,0.572,0.572,0,0,1-.14.8,14.442,14.442,0,0,1-4.25,1.909c-1.22.307-1.3,1.8-1.24,2.66v0.048a7.551,7.551,0,0,0,.1,1.449,17.447,17.447,0,0,0,8.22,1.893h0.01a17.317,17.317,0,0,0,8.22-1.892,7.248,7.248,0,0,0,.11-1.362,0.605,0.605,0,0,1-.01-0.135c0.06-.862-0.02-2.354-1.25-2.662a14.465,14.465,0,0,1-4.24-1.909,0.571,0.571,0,0,1-.14-0.8,0.588,0.588,0,0,1,.81-0.139,13.3,13.3,0,0,0,3.86,1.736c1.47,0.369,2.24,1.733,2.12,3.752C1080.99,133.466,1081,133.483,1081,133.5Z" transform="translate(-1062.03 -116)"/>
</svg>
